Tial’s Mini Project 1
…
Metamorphosis <- 
  read.table("/Users/a209112/Downloads/datasets/metamorphosis_clean.txt", header = FALSE, sep = "\t", fill = TRUE) |>

rename (text = "V1")  

Tokenize :

metamorph_tidy <- as_tibble(Metamorphosis) |>
  mutate(line = row_number()) |>
  unnest_tokens(word, text, token = "words")   

metamorph_tidy   

# A tibble: 22,048 × 2
    line word    
   <int> <chr>   
 1     1 i       
 2     2 one     
 3     2 morning 
 4     2 when    
 5     2 gregor  
 6     2 samsa   
 7     2 woke    
 8     2 from    
 9     2 troubled
10     2 dreams  
# ℹ 22,038 more rows
…
Counting how many constants are in each word

metamorph_tidy |>
  select(word) |>
  mutate(n_vowels = str_count(word, "[^aeiou$]")) 

# A tibble: 22,048 × 2
   word     n_vowels
   <chr>       <int>
 1 i               0
 2 one             1
 3 morning         5
 4 when            3
 5 gregor          4
 6 samsa           3
 7 woke            2
 8 from            3
 9 troubled        5
10 dreams          4
# ℹ 22,038 more rows

Detecting how often the word “family” comes up

metamorph_tidy |>
  mutate(index = line%/%10, text_to_lower = str_to_lower(word)) |>
  filter(str_detect(text_to_lower, "family")) |>
  select(index, text_to_lower) 

# A tibble: 32 × 2
   index text_to_lower
   <dbl> <chr>        
 1     9 family       
 2    20 family       
 3    26 family       
 4    46 family       
 5    59 family       
 6    63 family       
 7    72 family       
 8    75 family       
 9    76 family       
10    76 family       
# ℹ 22 more rows
…
   first_word
1           I
2         One
3     himself
4 armour-like
5       brown

Text Analysis Application :

1.Counting the numbers of positive and negative sentiments

get_sentiments(lexicon = "afinn")

# A tibble: 2,477 × 2
   word       value
   <chr>      <dbl>
 1 abandon       -2
 2 abandoned     -2
 3 abandons      -2
 4 abducted      -2
 5 abduction     -2
 6 abductions    -2
 7 abhor         -3
 8 abhorred      -3
 9 abhorrent     -3
10 abhors        -3
# ℹ 2,467 more rows

get_sentiments(lexicon = "nrc")

# A tibble: 13,872 × 2
   word        sentiment
   <chr>       <chr>    
 1 abacus      trust    
 2 abandon     fear     
 3 abandon     negative 
 4 abandon     sadness  
 5 abandoned   anger    
 6 abandoned   fear     
 7 abandoned   negative 
 8 abandoned   sadness  
 9 abandonment anger    
10 abandonment fear     
# ℹ 13,862 more rows

get_sentiments(lexicon = "bing")

# A tibble: 6,786 × 2
   word        sentiment
   <chr>       <chr>    
 1 2-faces     negative 
 2 abnormal    negative 
 3 abolish     negative 
 4 abominable  negative 
 5 abominably  negative 
 6 abominate   negative 
 7 abomination negative 
 8 abort       negative 
 9 aborted     negative 
10 aborts      negative 
# ℹ 6,776 more rows
…
Figure 2. This sentiment trajectory shows how the novel has a balanced mix of positive and negative sentiment. The X-axis labelled ‘index’ is the result of approximating a chapter from every 10 lines. This highlights how the emotional tone of the novel stays relatively consistent throughout.

3.Most common words

get_stopwords() |> print(n = 20)  

# A tibble: 175 × 2
   word       lexicon 
   <chr>      <chr>   
 1 i          snowball
 2 me         snowball
 3 my         snowball
 4 myself     snowball
 5 we         snowball
 6 our        snowball
 7 ours       snowball
 8 ourselves  snowball
 9 you        snowball
10 your       snowball
11 yours      snowball
12 yourself   snowball
13 yourselves snowball
14 he         snowball
15 him        snowball
16 his        snowball
17 himself    snowball
18 she        snowball
19 her        snowball
20 hers       snowball
# ℹ 155 more rows

get_stopwords(source = "smart") |> print(n = 20)   

# A tibble: 571 × 2
   word        lexicon
   <chr>       <chr>  
 1 a           smart  
 2 a's         smart  
 3 able        smart  
 4 about       smart  
 5 above       smart  
 6 according   smart  
 7 accordingly smart  
 8 across      smart  
 9 actually    smart  
10 after       smart  
11 afterwards  smart  
12 again       smart  
13 against     smart  
14 ain't       smart  
15 all         smart  
16 allow       smart  
17 allows      smart  
18 almost      smart  
19 alone       smart  
20 along       smart  
# ℹ 551 more rows
…
